{
    "id": 25,
    "probability": 0.01,
    "specialists": [
      0,
      2,
      6,
      14,
      33
    ],
    "symptoms": [
      {
        "id": 25,
        "correlation": 0.38
      },
      {
        "id": 2,
        "correlation": 0.25
      },
      {
        "id": 52,
        "correlation": 0.42
      },
      {
        "id": 56,
        "correlation": 0.18
      },
      {
        "id": 4,
        "correlation": 0.22
      },
      {
        "id": 12,
        "correlation": 0.12
      },
      {
        "id": 24,
        "correlation": 0.23
      }

    ],
    "riskFactors": [
      {
        "id": 41,
        "correlation": 0.9
      },
      {
        "id": 42,
        "correlation": 0.46
      },
      {
        "id": 17,
        "correlation": 0.23
      },
      {
        "id": 43,
        "correlation": 0.15
      },
      {
        "id": 44,
        "correlation": 0.22
      }
    ],
    "note": "Dilated cardiomyopathy is a disease of the heart muscle where the ventricle stretches and thins (dilates) and can't pump blood as well as a healthy heart can. Over time, both ventricles may be affected.",
    "instrumentalExaminations": [
      18,
      16,
      1,
      26
    ],
    "laboratoryTests": [
      {
        "id": 9,
        "range": [ 
          {
            "key": "Standard",
            "value": 4
          }
        ],
        "correlation": 0
      },
      {
        "id": 10,
        "range": [ 
          {
            "key": "Standard",
            "value": 140
          }
        ],
        "correlation": 0
      },
      {
        "id": 8,
        "range": [ 
          {
            "key": "Standard",
            "value": 0.85
          }
        ],
        "correlation": 0
      },
      {
        "id": 12,
        "range": [ 
          {
            "key": "Standard",
            "value": 15
          }
        ],
        "correlation": 0
      },
      {
        "id": 13,
        "range": [ 
          {
            "key": "Standard",
            "value": 1.6
          }
        ],
        "correlation": 0
      },
      {
        "id": 14,
        "range": [ 
          {
            "key": "Standard",
            "value": 100
          }
        ],
        "correlation": 0
      },
      {
        "id": 15,
        "range": [ 
          {
            "key": "Standard",
            "value": 100
          }
        ],
        "correlation": 0
      },
      {
        "id": 16,
        "range": [ 
          {
            "key": "Standard",
            "value": 70
          }
        ],
        "correlation": 0
      },
      {
        "id": 17,
        "range": [ 
          {
            "key": "Standard",
            "value": 50
          }
        ],
        "correlation": 0
      },
      {
        "id": 18,
        "range": [
          {
            "key": "M",
            "value": 45
          },
          {
            "key": "F",
            "value": 40
          }
        ],
        "correlation": 0
      },
      {
        "id": 19,
        "range": [
          {
            "key": "M",
            "value": 5
          },
          {
            "key": "F",
            "value": 4.5
          }
        ],
        "correlation": 0
      } ,
      {
        "id": 20,
        "range": [
          {
            "key": "M",
            "value": 15
          },
          {
            "key": "F",
            "value": 14
          }
        ],
        "correlation": 0
      },
      {
        "id": 38,
        "range": [ 
          {
            "key": "Standard",
            "value": 301
          }
        ],
        "correlation": 0.48
      }
    ],
    "therapy": "https://www.ahajournals.org/doi/pdf/10.1161/CIR.0000000000000455"
  }