{
    "id": 16,
    "probability": 0.02,
    "specialists": [
      0,
      2,
      6,
      14,
      22,
      33
    ],
    "symptoms": [
      {
        "id": 25,
        "correlation": 0.9
      },
      {
        "id": 48,
        "correlation": 0.07
      },
      {
        "id": 49,
        "correlation": 0.43
      },
      {
        "id": 50,
        "correlation": 0.08
      },
      {
        "id": 51,
        "correlation": 0.52
      },
      {
        "id": 2,
        "correlation": 0.32
      },
      {
        "id": 4,
        "correlation": 0.77
      }
      
    ],
    "riskFactors": [
      {
        "id": 24,
        "correlation": 0.73
      },
      {
        "id": 33,
        "correlation": 0.84
      },
      {
        "id": 34,
        "correlation": 0.79
      },
      {
        "id": 6,
        "correlation": 0.44
      },
      {
        "id": 21,
        "correlation": 0.23
      },
      {
        "id": 1,
        "correlation": 0.08
      },
      {
        "id": 7,
        "correlation": 0.13
      },
      {
        "id": 2,
        "correlation": 0.07
      },
      {
        "id": 31,
        "correlation": 0.47
      },
      {
        "id": 39,
        "correlation": 0.81
      }
    ],
    "note": "Mitral stenosis is a narrowing of the mitral valve opening that blocks (obstructs) blood flow from the left atrium to the left ventricle.",
    "instrumentalExaminations": [
      18,
      16,
      1,
      26,
      5
    ],
    "laboratoryTests": [
      {
        "id": 9,
        "range": [ 
          {
            "key": "Standard",
            "value": 4
          }
        ],
        "correlation": 0
      },
      {
        "id": 10,
        "range": [ 
          {
            "key": "Standard",
            "value": 140
          }
        ],
        "correlation": 0
      },
      {
        "id": 8,
        "range": [ 
          {
            "key": "Standard",
            "value": 0.85
          }
        ],
        "correlation": 0
      },
      {
        "id": 12,
        "range": [ 
          {
            "key": "Standard",
            "value": 15
          }
        ],
        "correlation": 0
      },
      {
        "id": 13,
        "range": [ 
          {
            "key": "Standard",
            "value": 1.6
          }
        ],
        "correlation": 0
      },
      {
        "id": 14,
        "range": [ 
          {
            "key": "Standard",
            "value": 100
          }
        ],
        "correlation": 0
      },
      {
        "id": 15,
        "range": [ 
          {
            "key": "Standard",
            "value": 100
          }
        ],
        "correlation": 0
      },
      {
        "id": 16,
        "range": [ 
          {
            "key": "Standard",
            "value": 70
          }
        ],
        "correlation": 0
      },
      {
        "id": 17,
        "range": [ 
          {
            "key": "Standard",
            "value": 50
          }
        ],
        "correlation": 0
      },
      {
        "id": 18,
        "range": [
          {
            "key": "M",
            "value": 45
          },
          {
            "key": "F",
            "value": 40
          }
        ],
        "correlation": 0
      },
      {
        "id": 19,
        "range": [
          {
            "key": "M",
            "value": 5
          },
          {
            "key": "F",
            "value": 4.5
          }
        ],
        "correlation": 0
      } ,
      {
        "id": 20,
        "range": [
          {
            "key": "M",
            "value": 15
          },
          {
            "key": "F",
            "value": 14
          }
        ],
        "correlation": 0
      },
      {
        "id": 38,
        "range": [ 
          {
            "key": "Standard",
            "value": 301
          }
        ],
        "correlation": 0.9
      }
    ],
    "therapy": "https://academic.oup.com/ejcts/article/42/4/S1/606787"
  }