{
    "id": 15,
    "probability": 0.05,
    "specialists": [
      0,
      2,
      6,
      14
    ],
    "symptoms": [
      {
        "id": 7,
        "correlation": 0.22
      },
      {
        "id": 11,
        "correlation": 0.05
      },
      {
        "id": 12,
        "correlation": 0.10
      },
      {
        "id": 14,
        "correlation": 0.13
      },
      {
        "id": 17,
        "correlation": 0.17
      },
      {
        "id": 23,
        "correlation": 0.66
      },
      {
        "id": 4,
        "correlation": 0.18
      },
      {
        "id": 2,
        "correlation": 0.13
      }
    ],
    "riskFactors": [
      {
        "id": 35,
        "correlation": 0.8
      },
      {
        "id": 36,
        "correlation": 0.27
      },
      {
        "id": 37,
        "correlation": 0.48
      },
      {
        "id": 29,
        "correlation": 0.45
      },
      {
        "id": 19,
        "correlation": 0.13
      },
      {
        "id": 6,
        "correlation": 0.36
      }
    ],
    "note": "Arrhythmias are disturbances of the heart rhythm or heart rate (i.e. the number of beats per minute). The heart may beat too fast (tachycardia) or too slowly (bradycardia) or with a completely irregular rhythm (e.g. atrial fibrillation).",
    "instrumentalExaminations": [
      18,
      16,
      2,
      17
    ],
    "laboratoryTests": [
      {
        "id": 9,
        "range": [ 
          {
            "key": "Standard",
            "value": 4
          }
        ],
        "correlation": 0
      },
      {
        "id": 10,
        "range": [ 
          {
            "key": "Standard",
            "value": 140
          }
        ],
        "correlation": 0
      },
      {
        "id": 12,
        "range": [ 
          {
            "key": "Standard",
            "value": 15
          }
        ],
        "correlation": 0
      },
      {
        "id": 13,
        "range": [ 
          {
            "key": "Standard",
            "value": 1.6
          }
        ],
        "correlation": 0
      },
      {
        "id": 14,
        "range": [ 
          {
            "key": "Standard",
            "value": 100
          }
        ],
        "correlation": 0
      },
      {
        "id": 15,
        "range": [ 
          {
            "key": "Standard",
            "value": 100
          }
        ],
        "correlation": 0
      },
      {
        "id": 16,
        "range": [ 
          {
            "key": "Standard",
            "value": 70
          }
        ],
        "correlation": 0
      },
      {
        "id": 17,
        "range": [ 
          {
            "key": "Standard",
            "value": 50
          }
        ],
        "correlation": 0
      },
      {
        "id": 18,
        "range": [
          {
            "key": "M",
            "value": 45
          },
          {
            "key": "F",
            "value": 40
          }
        ],
        "correlation": 0
      },
      {
        "id": 19,
        "range": [
          {
            "key": "M",
            "value": 5
          },
          {
            "key": "F",
            "value": 4.5
          }
        ],
        "correlation": 0
      } ,
      {
        "id": 20,
        "range": [
          {
            "key": "M",
            "value": 15
          },
          {
            "key": "F",
            "value": 14
          }
        ],
        "correlation": 0
      } 
    ],
    "therapy": "https://www.escardio.org/Guidelines/Clinical-Practice-Guidelines"
  }