{
    "id": 21,
    "probability": 0.02,
    "specialists": [
      0,
      2,
      6,
      14,
      22,
      33
    ],
    "symptoms": [
      {
        "id": 2,
        "correlation": 0.16
      },
      {
        "id": 4,
        "correlation": 0.21
      },
      {
        "id": 23,
        "correlation": 0.09
      },
      {
        "id": 52,
        "correlation": 0.9
      },
      {
        "id": 56,
        "correlation": 0.26
      },
      {
        "id": 57,
        "correlation": 0.63
      }
    ],
    "riskFactors": [
      {
        "id": 24,
        "correlation": 0.83
      },
      {
        "id": 33,
        "correlation": 0.56
      },
      {
        "id": 34,
        "correlation": 0.34
      },
      {
        "id": 31,
        "correlation": 0.42
      },
      {
        "id": 38,
        "correlation": 0.67
      },
      {
        "id": 40,
        "correlation": 0.58
      }
    ],
    "note": "Tricuspid valve insuffiency is a condition in which the valve between right ventricle and right atrium doesn't close properly. The malfunctioning valve allows blood to flow back into right atrium during sistole. Tricuspid valve regurgitation can be the result of congenital heart disease or it can occur due to aquired problematics.",
    "instrumentalExaminations": [
      18,
      16,
      1,
      26,
      5
    ],
    "laboratoryTests": [
      {
        "id": 9,
        "range": [ 
          {
            "key": "Standard",
            "value": 4
          }
        ],
        "correlation": 0
      },
      {
        "id": 10,
        "range": [ 
          {
            "key": "Standard",
            "value": 140
          }
        ],
        "correlation": 0
      },
      {
        "id": 8,
        "range": [ 
          {
            "key": "Standard",
            "value": 0.85
          }
        ],
        "correlation": 0
      },
      {
        "id": 12,
        "range": [ 
          {
            "key": "Standard",
            "value": 15
          }
        ],
        "correlation": 0
      },
      {
        "id": 13,
        "range": [ 
          {
            "key": "Standard",
            "value": 1.6
          }
        ],
        "correlation": 0
      },
      {
        "id": 14,
        "range": [ 
          {
            "key": "Standard",
            "value": 100
          }
        ],
        "correlation": 0
      },
      {
        "id": 15,
        "range": [ 
          {
            "key": "Standard",
            "value": 100
          }
        ],
        "correlation": 0
      },
      {
        "id": 16,
        "range": [ 
          {
            "key": "Standard",
            "value": 70
          }
        ],
        "correlation": 0
      },
      {
        "id": 17,
        "range": [ 
          {
            "key": "Standard",
            "value": 50
          }
        ],
        "correlation": 0
      },
      {
        "id": 18,
        "range": [
          {
            "key": "M",
            "value": 45
          },
          {
            "key": "F",
            "value": 40
          }
        ],
        "correlation": 0
      },
      {
        "id": 19,
        "range": [
          {
            "key": "M",
            "value": 5
          },
          {
            "key": "F",
            "value": 4.5
          }
        ],
        "correlation": 0
      } ,
      {
        "id": 20,
        "range": [
          {
            "key": "M",
            "value": 15
          },
          {
            "key": "F",
            "value": 14
          }
        ],
        "correlation": 0
      },
      {
        "id": 38,
        "range": [ 
          {
            "key": "Standard",
            "value": 301
          }
        ],
        "correlation": 0.26
      }
    ],
    "therapy": "https://academic.oup.com/eurheartj/article/38/36/2739/4095039#supplementary-data"
  }