{
    "id": 20,
    "probability": 0.01,
    "specialists": [
      0,
      2,
      6,
      14,
      22,
      33
    ],
    "symptoms": [
      {
        "id": 25,
        "correlation": 0.72
      },
      {
        "id": 2,
        "correlation": 0.27
      },
      {
        "id": 52,
        "correlation": 0.9
      },
      {
        "id": 56,
        "correlation": 0.72
      },
      {
        "id": 57,
        "correlation": 0.76
      },
      {
        "id": 58,
        "correlation": 0.7
      },
      {
        "id": 59,
        "correlation": 0.15
      },
      {
        "id": 60,
        "correlation": 0.08
      }
    ],
    "riskFactors": [
      {
        "id": 33,
        "correlation": 0.7
      },
      {
        "id": 34,
        "correlation": 0.22
      },
      {
        "id": 1,
        "correlation": 0.12
      },
      {
        "id": 2,
        "correlation": 0.08
      },
      {
        "id": 39,
        "correlation": 0.47
      }
    ],
    "note": "Tricuspid Valve Stenosis is a valvular heart disease that narrows the opening of the heart's tricuspid valve and obstructs blood flow from the right atrium to the right ventricle. It is a relatively rare condition that causes an encreased of pression in right atrium.",
    "instrumentalExaminations": [
      18,
      16,
      1,
      26,
      5
    ],
    "laboratoryTests": [
      {
        "id": 9,
        "range": [ 
          {
            "key": "Standard",
            "value": 4
          }
        ],
        "correlation": 0
      },
      {
        "id": 10,
        "range": [ 
          {
            "key": "Standard",
            "value": 140
          }
        ],
        "correlation": 0
      },
      {
        "id": 8,
        "range": [ 
          {
            "key": "Standard",
            "value": 0.85
          }
        ],
        "correlation": 0
      },
      {
        "id": 12,
        "range": [ 
          {
            "key": "Standard",
            "value": 15
          }
        ],
        "correlation": 0
      },
      {
        "id": 13,
        "range": [ 
          {
            "key": "Standard",
            "value": 1.6
          }
        ],
        "correlation": 0
      },
      {
        "id": 14,
        "range": [ 
          {
            "key": "Standard",
            "value": 100
          }
        ],
        "correlation": 0
      },
      {
        "id": 15,
        "range": [ 
          {
            "key": "Standard",
            "value": 100
          }
        ],
        "correlation": 0
      },
      {
        "id": 16,
        "range": [ 
          {
            "key": "Standard",
            "value": 70
          }
        ],
        "correlation": 0
      },
      {
        "id": 17,
        "range": [ 
          {
            "key": "Standard",
            "value": 50
          }
        ],
        "correlation": 0
      },
      {
        "id": 18,
        "range": [
          {
            "key": "M",
            "value": 45
          },
          {
            "key": "F",
            "value": 40
          }
        ],
        "correlation": 0
      },
      {
        "id": 19,
        "range": [
          {
            "key": "M",
            "value": 5
          },
          {
            "key": "F",
            "value": 4.5
          }
        ],
        "correlation": 0
      } ,
      {
        "id": 20,
        "range": [
          {
            "key": "M",
            "value": 15
          },
          {
            "key": "F",
            "value": 14
          }
        ],
        "correlation": 0
      },
      {
        "id": 38,
        "range": [ 
          {
            "key": "Standard",
            "value": 301
          }
        ],
        "correlation": 0.9
      }
    ],
    "therapy": "https://academic.oup.com/ejcts/article/42/4/S1/606787"
  }